\relax 
\catcode`"\active
\select@language{slovene}
\@writefile{toc}{\select@language{slovene}}
\@writefile{lof}{\select@language{slovene}}
\@writefile{lot}{\select@language{slovene}}
\@writefile{toc}{\contentsline {section}{\numberline {1}Opis podatkovnih struktur}{1}}
\@writefile{toc}{\contentsline {subsection}{\numberline {1.1}Rde\IeC {\v c}e-\IeC {\v c}rno drevo}{1}}
\@writefile{toc}{\contentsline {subsection}{\numberline {1.2}Anderssonovo drevo}{2}}
\@writefile{toc}{\contentsline {subsection}{\numberline {1.3}Povezan seznam}{2}}
\@writefile{toc}{\contentsline {subsection}{\numberline {1.4}Zgo\IeC {\v s}\IeC {\v c}ena tabela}{3}}
\@writefile{toc}{\contentsline {section}{\numberline {2}Rezultati \IeC {\v c}asovnih meritev}{3}}
\@writefile{toc}{\contentsline {section}{\numberline {3}Prakti\IeC {\v c}ni scenariji}{5}}
